pprog_tp3\model\AtribuicaoCartao.class
pprog_tp3\model\RegistoPerfisDeAutorizacao.class
pprog_tp3\model\Colaborador.class
pprog_tp3\model\PerfilDeAutorizacao.class
pprog_tp3\ui\FileChooserRegistoAcessos.class
pprog_tp3\model\RegistoDeColaboradores.class
pprog_tp3\ui\MainApp.class
pprog_tp3\model\Equipamento.class
pprog_tp3\model\PeriodoDeAutorizacao.class
pprog_tp3\ui\FileChooserRegistoPerfis.class
pprog_tp3\model\FicheiroRegistoPerfis.class
pprog_tp3\model\AreaRestrita.class
pprog_tp3\model\Cartao.class
pprog_tp3\model\AcessoAreaRestrita.class
pprog_tp3\model\AtribuirCartaoProvisorio.class
pprog_tp3\controllers\RegistarPerfilController.class
pprog_tp3\model\RegistoDeEquipamentos.class
pprog_tp3\model\RegistoDeCartoes.class
pprog_tp3\model\AtribuirCartaoDefinitivo.class
pprog_tp3\model\RegistoDeAcessos.class
pprog_tp3\controllers\JanelaPrincipalController.class
pprog_tp3\model\CartaoIdentificacao.class
pprog_tp3\model\ListaPeriodosAutorizacao.class
pprog_tp3\model\Empresa.class
pprog_tp3\controllers\SelecionarPeriodoController.class
pprog_tp3\ui\MainApp$1.class
pprog_tp3\model\FicheiroRegistoAcessos.class
